{
  "type": "service_account",
  "project_id": "cybernetic-stream-000",
  "private_key_id": "d52d145b26c02516fc36151afe0bb5c8777939de",
  "private_key": "-----BEGIN PRIVATE KEY-----\nMIIEvwIBADANBgkqhkiG9w0BAQEFAASCBKkwggSlAgEAAoIBAQDLrfQtanhIfZYo\nZvaj71GRmBO8qA+JhT1P1J8+HrGPUDCybvAGmfenTte80t2VOsB+QTntbLJsbAk1\nRwxOjWqTnfj/nFIyY3uXiF9SspBm+ryjk1ViLqeBBR53UEg34oTmhpFCBL1KYcVS\n5IWBzoSjR5oiwgFmbgciYCneRTzWYVfRtJ2vl/j89187JtexKhv2C6ncjj8Fhcoo\nIEnVuLT0jw943tGCzmc+yD6xj65t4x9saITK6Aql90gwOUc++Wt+LMfUgXNMH5gQ\ntOlWrI+nBfUX0KIirKqouUjX3qZgB5d1hofpUsWDFAwYGa8xnDbEs5N9cdUcwij5\nKCz/BOl/AgMBAAECggEAARgvWIfyQmruQyRrJrS7Ka6XW5R95XQESPqs+yj2ks4V\nd4SQcGZbPYJDCCXIS1yqMa/lGhP1FRSjdMNir/5FKBiF87kFxHVtNbvls6QPYulg\nyXe+by6rcjQ+JNnoHlZkNafuPEy+ypa3ArC76td3SxPE+OsrGwCocANsHA0AQaDE\nGL6lLCfnE2HmxXpIM06zMi4yQ9vinvsxa9/iAZTCuDod/eg8/KC4ZbEUKR9B6y4/\n60pjT4vwsCFzwz49OWU9iuuSLxeFm7yn3w452/2y7OjkqUchUGd19DQhrM+IMcN0\nFrYrgHRTX4OdbeMzXBF28RCBp0Gc1rGCCG/8Gyi4gQKBgQD/ukhkCuPklEeUIz3f\nHn2WrhJiIECx5IWFLIRkyqiOFhBDBSLHCbf1Lm14Pcg6xJqIEwO4yfe2ozEOupmk\nwV/KDHRcIbT96QtUXzDNI2MOUbxllxPjV8xSdxdprO3VZDX8cXmRjr7lO0JMH7JN\nlh4uaS2l+GIb9N0Hufb9UQTKNwKBgQDL5XtE5lNCNNLmmsOcryBgFi7HfNivXL6z\ncVgfy6IXfmgALirOFhxn8X37ryDdan8RiqG/rbFfxLCka/quYx9T8igwcEhjltc/\nzwbyPIJuG+rHAugUWH7phzrakPYyqvRl7vHWH1yEW6m4eB+9SaeFJ3dfJ00SqHG3\nZC3DxCCW+QKBgQCCBwsF60+jCw42MZElINDEy+/G+xVKHqMRauhKg40e6fMM0NC1\nGajyvs+kou1rjEnyxJBQ5kjREbtA/Ppgfn6hMqH7spvfux4qoVgkBkk4n7DGiwHu\nx9a5W5qI/gfUR+b3XA9vRoCj9/Sm1jsIHjtsZ8hxKpFgG6pDYnhGp2pjEwKBgQDG\ncUpP/Hr77L12gxnu3OL9oZlVvkSGKBXSP3YtO9s+UmCWDFjMyuhKodajpgaueH/D\natGR5FLFioEBBbatEvvij8RdoGpTwvMrvypbiFjJIZKWrlWBt7+NOXgmUP/MwGWs\n76mfZFZ+21eLmh4J9C1+grLDgVSZ3CcQ/gcsiS3OwQKBgQCclgATWHVj5aYITbD2\nVjVWywr2OnhjYkEM/y45zv8E5CKo8Tjs6/ZkfykRYYarmMNWBeyIk8szRXKnyW0+\nvJR6el/JHakfur8xdT3pcmB4XtDP5BFJ4366GYVGFBEQxXOgmeZzb2czLBhnqqjp\n1X23a6i1ff56wox+pKs4OY4ADg==\n-----END PRIVATE KEY-----\n",
  "client_email": "firebase-adminsdk-x1c0r@cybernetic-stream-000.iam.gserviceaccount.com",
  "client_id": "100481759824979615264",
  "auth_uri": "https://accounts.google.com/o/oauth2/auth",
  "token_uri": "https://oauth2.googleapis.com/token",
  "auth_provider_x509_cert_url": "https://www.googleapis.com/oauth2/v1/certs",
  "client_x509_cert_url": "https://www.googleapis.com/robot/v1/metadata/x509/firebase-adminsdk-x1c0r%40cybernetic-stream-000.iam.gserviceaccount.com"
}
